^D:\TIN\PROJECTS\SDL2.0_GAME\SDL2.0_GAME\DEBUG\BASEFUNCTION.OBJ|D:\TIN\PROJECTS\SDL2.0_GAME\SDL2.0_GAME\DEBUG\BASEOBJECT.OBJ|D:\TIN\PROJECTS\SDL2.0_GAME\SDL2.0_GAME\DEBUG\BULLETOBJECT.OBJ|D:\TIN\PROJECTS\SDL2.0_GAME\SDL2.0_GAME\DEBUG\GAME_MAP.OBJ|D:\TIN\PROJECTS\SDL2.0_GAME\SDL2.0_GAME\DEBUG\IMPTIMER.OBJ|D:\TIN\PROJECTS\SDL2.0_GAME\SDL2.0_GAME\DEBUG\MAIN.OBJ|D:\TIN\PROJECTS\SDL2.0_GAME\SDL2.0_GAME\DEBUG\MAINPLAYER.OBJ|D:\TIN\PROJECTS\SDL2.0_GAME\SDL2.0_GAME\DEBUG\STDAFX.OBJ|D:\TIN\PROJECTS\SDL2.0_GAME\SDL2.0_GAME\DEBUG\THREATOBJECTS.OBJ
D:\TIN\PROJECTS\SDL2.0_GAME\LIBSDL2\SDL2-2.0.8\LIB\X86\SDL2.LIB
D:\TIN\PROJECTS\SDL2.0_GAME\LIBSDL2\SDL2-2.0.8\LIB\X86\SDL2MAIN.LIB
D:\TIN\PROJECTS\SDL2.0_GAME\LIBSDL2\SDL2_IMAGE-2.0.3\LIB\X86\SDL2_IMAGE.LIB
D:\TIN\PROJECTS\SDL2.0_GAME\LIBSDL2\SDL2_MIXER-2.0.2\LIB\X86\SDL2_MIXER.LIB
D:\TIN\PROJECTS\SDL2.0_GAME\LIBSDL2\SDL2_TTF-2.0.14\LIB\X86\SDL2_TTF.LIB
C:\PROGRAM FILES (X86)\WINDOWS KITS\8.0\LIB\WIN8\UM\X86\KERNEL32.LIB
C:\PROGRAM FILES (X86)\WINDOWS KITS\8.0\LIB\WIN8\UM\X86\USER32.LIB
C:\PROGRAM FILES (X86)\WINDOWS KITS\8.0\LIB\WIN8\UM\X86\GDI32.LIB
C:\PROGRAM FILES (X86)\WINDOWS KITS\8.0\LIB\WIN8\UM\X86\WINSPOOL.LIB
C:\PROGRAM FILES (X86)\WINDOWS KITS\8.0\LIB\WIN8\UM\X86\COMDLG32.LIB
C:\PROGRAM FILES (X86)\WINDOWS KITS\8.0\LIB\WIN8\UM\X86\ADVAPI32.LIB
C:\PROGRAM FILES (X86)\WINDOWS KITS\8.0\LIB\WIN8\UM\X86\SHELL32.LIB
C:\PROGRAM FILES (X86)\WINDOWS KITS\8.0\LIB\WIN8\UM\X86\OLE32.LIB
C:\PROGRAM FILES (X86)\WINDOWS KITS\8.0\LIB\WIN8\UM\X86\OLEAUT32.LIB
C:\PROGRAM FILES (X86)\WINDOWS KITS\8.0\LIB\WIN8\UM\X86\UUID.LIB
C:\PROGRAM FILES (X86)\WINDOWS KITS\8.0\LIB\WIN8\UM\X86\ODBC32.LIB
C:\PROGRAM FILES (X86)\WINDOWS KITS\8.0\LIB\WIN8\UM\X86\ODBCCP32.LIB
D:\TIN\PROJECTS\SDL2.0_GAME\SDL2.0_GAME\DEBUG\BASEFUNCTION.OBJ
D:\TIN\PROJECTS\SDL2.0_GAME\SDL2.0_GAME\DEBUG\BASEOBJECT.OBJ
D:\TIN\PROJECTS\SDL2.0_GAME\SDL2.0_GAME\DEBUG\BULLETOBJECT.OBJ
D:\TIN\PROJECTS\SDL2.0_GAME\SDL2.0_GAME\DEBUG\GAME_MAP.OBJ
D:\TIN\PROJECTS\SDL2.0_GAME\SDL2.0_GAME\DEBUG\MAIN.OBJ
D:\TIN\PROJECTS\SDL2.0_GAME\SDL2.0_GAME\DEBUG\MAINPLAYER.OBJ
D:\TIN\PROJECTS\SDL2.0_GAME\SDL2.0_GAME\DEBUG\STDAFX.OBJ
D:\TIN\PROJECTS\SDL2.0_GAME\SDL2.0_GAME\DEBUG\IMPTIMER.OBJ
D:\TIN\PROJECTS\SDL2.0_GAME\SDL2.0_GAME\DEBUG\THREATOBJECTS.OBJ
C:\WINDOWS\SYSTEM32\TZRES.DLL
C:\WINDOWS\GLOBALIZATION\SORTING\SORTDEFAULT.NLS
C:\PROGRAM FILES (X86)\MICROSOFT VISUAL STUDIO 11.0\VC\LIB\MSVCPRTD.LIB
C:\PROGRAM FILES (X86)\MICROSOFT VISUAL STUDIO 11.0\VC\LIB\MSVCRTD.LIB
C:\PROGRAM FILES (X86)\MICROSOFT VISUAL STUDIO 11.0\VC\LIB\OLDNAMES.LIB
